<?xml version="1.0" encoding="iso-8859-1"?>
<!-- Generator: Adobe Illustrator 16.0.0, SVG Export Plug-In . SVG Version: 6.00 Build 0)  -->
<!DOCTYPE svg PUBLIC "-//W3C//DTD SVG 1.1//EN" "http://www.w3.org/Graphics/SVG/1.1/DTD/svg11.dtd">
<svg xmlns="http://www.w3.org/2000/svg" xmlns:xlink="http://www.w3.org/1999/xlink" version="1.1" id="Capa_1" x="0px" y="0px" width="512px" height="512px" viewBox="0 0 612.697 612.697" style="enable-background:new 0 0 612.697 612.697;" xml:space="preserve">
<g>
	<g>
		<path d="M593.235,286.701h-82.711c-10.773,0-19.113,8.378-19.113,19.128s8.34,19.425,19.113,19.425h82.711    c10.772,0,19.113-8.675,19.113-19.425S604.008,286.701,593.235,286.701z" fill="#999999"/>
		<path d="M464.305,175.861l58.378-59.09c7.451-7.562,7.726-18.832,0-27.136c-7.229-7.71-19.157-8.007-27.105,0l-58.386,59.09    c-7.443,7.562-7.992,19.128,0,27.135C444.494,183.127,457.047,183.201,464.305,175.861z" fill="#999999"/>
		<path d="M464.305,436.836c-7.999-8.007-20.158-8.007-27.113,0c-7.992,6.969-7.488,19.647,0,27.136l58.386,58.348    c5.909,7.34,21.204,7.34,27.105,0c8-6.895,7.993-19.128,0-27.061L464.305,436.836z" fill="#999999"/>
		<path d="M306.178,121.665c10.773,0,19.461-8.378,19.461-19.128V19.128C325.64,8.378,316.951,0,306.178,0    s-19.114,8.378-19.114,19.128v83.408C287.064,113.287,295.405,121.665,306.178,121.665z" fill="#999999"/>
		<path d="M306.178,491.032c-10.773,0-19.114,8.378-19.114,19.129v83.408c0,10.083,8.341,19.128,19.114,19.128    s19.461-9.045,19.461-19.796v-82.74C325.64,499.41,316.951,491.032,306.178,491.032z" fill="#999999"/>
		<path d="M411.132,200.847c-29.02-28.989-63.946-43.743-104.954-43.743c-41.015,0-76.113,14.605-105.302,43.743    c-28.848,28.841-43.446,63.983-43.446,104.983s14.428,76.291,43.446,105.28c29.019,29.062,64.287,43.446,105.302,43.446    c41.007,0,76.105-14.605,104.954-43.446c29.188-29.138,43.787-64.28,43.787-105.28S440.15,229.91,411.132,200.847z     M384.366,384.048c-21.545,21.501-47.605,32.325-78.188,32.325c-30.234,0-56.302-10.824-77.848-32.325    c-21.545-21.575-32.325-47.672-32.325-78.218c0-30.25,10.78-56.272,32.325-77.848c21.545-21.575,47.613-32.325,77.848-32.325    c30.583,0,56.643,10.75,78.188,32.325c21.553,21.575,32.326,47.598,32.326,77.848    C416.692,336.376,405.919,362.473,384.366,384.048z" fill="#999999"/>
		<path d="M149.089,175.861c3.826,3.781,8.341,5.561,13.56,5.561c4.515,0,9.03-1.779,13.553-5.561    c6.947-8.007,6.947-20.166,0-27.135l-59.083-59.09c-6.947-6.895-20.159-6.895-27.106,0c-7.992,8.007-7.488,19.647,0,27.136    L149.089,175.861z" fill="#999999"/>
		<path d="M148.4,436.836l-58.386,58.423c-7.992,7.933-7.992,19.795,0,27.803c7.295,7.266,19.811,7.266,27.106,0l59.083-59.09    c7.488-7.488,6.947-20.167,0-27.136C168.21,428.829,156.392,428.829,148.4,436.836z" fill="#999999"/>
		<path d="M121.983,305.83c0-10.75-8.341-19.128-19.113-19.128H19.462c-10.772,0-19.113,8.378-19.113,19.128    s8.341,19.425,19.113,19.425h83.408C113.643,325.255,121.983,316.58,121.983,305.83z" fill="#999999"/>
	</g>
</g>
<g>
</g>
<g>
</g>
<g>
</g>
<g>
</g>
<g>
</g>
<g>
</g>
<g>
</g>
<g>
</g>
<g>
</g>
<g>
</g>
<g>
</g>
<g>
</g>
<g>
</g>
<g>
</g>
<g>
</g>
</svg>
